,SerialNumber,overall_percentile,overall_risk
0,16268WL82406279,99.095109222029,very_high
1,15332WL81655271,98.83687916688882,very_high
2,15332WL81654956,98.68830905246443,very_high
3,16267WL82402914,98.41920064891765,very_high
4,16071WL81875869,98.37894738307438,very_high
5,15287WL81550103,98.1313924040951,very_high
6,15269WL81508631,97.99296737048104,very_high
7,18081WL84008626,97.91649462890967,very_high
8,15269WL81508606,97.91150806381819,very_high
9,17128WL26108336,97.89387006190613,very_high
